[
  {
    "id": 0,
    "name": "Image 1",
    "image": "https://picsum.photos/id/237/200/300"
    },
  {
    "id": 1,
    "name": "Image 2",
    "image": "https://picsum.photos/id/1000/5626/3635"
    },
  {
    "id": 2,
    "name": "Image 3",
    "image": "https://picsum.photos/id/1003/1181/1772"
     },
  {
    "id": 3,
    "name": "Image 4",
    "image": "https://picsum.photos/id/1012/3973/2639"
     },
  {
    "id": 4,
    "name": "Image 5",
    "image": "https://picsum.photos/id/1011/5472/3648"
  },
  {
    "id": 5,
    "name": "Image 6",
    "image": "https://picsum.photos/id/1015/6000/4000"
    },
  {
    "id": 6,
    "name": "Image 7",
    "image": "https://picsum.photos/id/1019/5472/3648"
     },
  {
    "id": 7,
    "name": "Image 8",
    "image": "https://picsum.photos/id/102/4320/3240"
    },
  {
    "id": 8,
    "name": "Image 9",
    "image": "https://picsum.photos/id/1024/1920/1280"
    },
  {
    "id": 9,
    "name": "Image 10",
    "image": "https://picsum.photos/id/1023/3955/2094"
    }
]